{
    "idSecret" : "gsdfhgsdfgskfgls",
    "idPE" : "456123",
    "nomStagiaire": "jack",
    "prenomStagiaire": "éventreur",
    "telStagiaire": "0645836246",
    "mailStagiaire": "jack@hotmail.fr",
    "idCarifSession": "94632587632",
    "idCarifAction": "7539463169",
    "idCarifFormation": "4693156953",
    "intitule" : "vendeur",
    "financement" : "oui",
    "dateDebut": "01/01/2015 08:00",
    "dateFin": "02/05/2016 22:00",
    "formacode": "4236753696",
    "codeCertifinfo": "1286349635",
    "lieuFormation": "paris",
    "idCarifOrganisme": "7569632145",
    "nomOrganisme": "Afpa",
    "adresseOrganisme": "10 rue de la liberté",
    "mailOrganisme": "contact@afpa.fr",
    "siren": "4931696532",
    "siret": "7563196348"
} {
    "idPE" : "123456",
    "idSecret": "sdfsfdsfdsfqq",
    "nomStagiaire": "marc",
    "prenomStagiaire": "balavoine",
    "telStagiaire": "0685639646",
    "mailStagiaire": "marc@hotmail.fr",
    "idCarifSession": "94632587632",
    "idCarifAction": "7539463169",
    "idCarifFormation": "4693156953",
    "intitule" : "vendeur",
    "financement" : "oui",
    "dateDebut": "01/01/2015 08:00",
    "dateFin": "02/05/2016 22:00",
    "formacode": "4236753696",
    "codeCertifinfo": "1286349635",
    "lieuFormation": "paris",
    "idCarifOrganisme": "7569632145",
    "nomOrganisme": "Afpa",
    "adresseOrganisme": "10 rue de la liberté",
    "mailOrganisme": "contact@afpa.fr",
    "siren": "4931696532",
    "siret": "7563196348"
} {
    "idPE" : "789123",
    "idSecret": "sdfhggrfsgrthfts",
    "nomStagiaire": "jean",
    "prenomStagiaire": "valjean",
    "telStagiaire": "0696463296",
    "mailStagiaire": "jean@hotmail.fr",
    "idCarifSession": "94632587632",
    "idCarifAction": "7539463169",
    "idCarifFormation": "4693156953",
    "intitule" : "vendeur",
    "financement" : "oui",
    "dateDebut": "01/01/2015 08:00",
    "dateFin": "02/05/2016 22:00",
    "formacode": "4236753696",
    "codeCertifinfo": "1286349635",
    "lieuFormation": "paris",
    "idCarifOrganisme": "7569632145",
    "nomOrganisme": "Afpa",
    "adresseOrganisme": "10 rue de la liberté",
    "mailOrganisme": "contact@afpa.fr",
    "siren": "4931696532",
    "siret": "7563196348"
} {
    "idPE" : "987654",
    "idSecret" : "qmofhzehfquhlfuqhf",
    "nomStagiaire": "lens",
    "prenomStagiaire": "armstrong",
    "telStagiaire": "07889647853",
    "mailStagiaire": "lens@hotmail.fr",
    "idCarifSession": "8976158693",
    "idCarifAction": "7896346972",
    "idCarifFormation": "8965347862",
    "intitule" : "vendeur",
    "financement" : "oui",
    "dateDebut": "01/01/2015 08:00",
    "dateFin": "25/06/2015 22:00",
    "formacode": "8693486285",
    "codeCertifinfo": "8694735896",
    "lieuFormation": "brest",
    "idCarifOrganisme": "7896469345",
    "nomOrganisme": "greta",
    "adresseOrganisme": "15 rue de la mer",
    "mailOrganisme": "contact@greta.fr",
    "siren": "8763493769",
    "siret": "8569743896"
} {
    "idPE" : "4863254",
    "idSecret" : "qsdohfdighfiuhf",
    "nomStagiaire": "parker",
    "prenomStagiaire": "peter",
    "telStagiaire": "0645839621",
    "mailStagiaire": "spiderman@hotmail.fr",
    "idCarifSession": "7896463896",
    "idCarifAction": "7301503600",
    "idCarifFormation": "0079630590",
    "intitule" : "vendeur",
    "financement" : "oui",
    "dateDebut": "01/01/2012 08:00",
    "dateFin": "01/06/2013 22:00",
    "formacode": "76038964036",
    "codeCertifinfo": "80694037965",
    "lieuFormation": "lyon",
    "idCarifOrganisme": "76635904693",
    "nomOrganisme": "formacode",
    "adresseOrganisme": "21 rue du néant",
    "mailOrganisme": "contact@formacode.fr",
    "siren": "6637940268",
    "siret": "9713654820"
}